{
  "type": "service_account",
  "project_id": "amfitfirebase2",
  "private_key_id": "af0238169706070062b026fb3be6830063ed2e1a",
  "private_key": "-----BEGIN PRIVATE KEY-----\nMIIEvAIBADANBgkqhkiG9w0BAQEFAASCBKYwggSiAgEAAoIBAQDR9N0oDh5SPdwV\nUsovDwzk6IAMrtP/wXHOEMxaMrvhuOMQQyzcKuzToNWaU1qAYtdAig5o/wftpIVI\nspkZalWEi5pSztYGxZkYBZR8a1AMfh2JJCY3O/bZaesz+lc+qrAGh53VyPPZhqoU\nmyRJzt1rpqjdHPEg5KFX6IOx8nMfB+pm48aRDQjsJZSaiw73fogyJ3yK8pphUcQp\nndAnpEsX8DkIa5//STlPKuJbs2taGx8dOwLtKe+G7B2jNGQ0Ca2lv7l+AHaWyywn\nndIm/MmOrD2iiaGomEJVQ3fTwwvaT+dGbMIhMXPRfzBQpHjbDkr45+juojbpaTL+\nsQ3sdsB3AgMBAAECggEABVqS8yJdB+gs6bGelzxGg2XMXMZugH88eYPjJMpWESec\n8/1f3Pi5PkeZJXd0/4DFurm/1qc+MANPJMSXySv1efecsU+LP0lK90UD0s0NEax7\nm1N70qe+9S9Ra0C5zc7IxfnaU/5s/WyE1MQEql8nNUde103qy4BuVCaz3lXvipMm\nErXLQWZYQz0g08BaFufk/11VJaYvjiSm3RdwS71KeKqu+CChw4yOSyDvOd+vdc4+\nZH/6qEFVxP8Yzouw3hI6kcRPO8Q1QSt5l3H4bVLmcO5SloPNomKZPPe+8/HrXB9u\nN8zLduTVFJxLxxfRE2aOvLafOh+R3gcwVScTjvrEkQKBgQD6WvzM3SLtkF3C+AWP\n6adNARZyNze14kfWQ0oQb7JsVZHfcQAwA/7RYCnc5UcPoKnusBhNMgnfHs1DBz06\nlg0hjgrvDgT8CulQHywtb8h0rKBFpkhk5mXG/MtdHKBPvy7imSNN4VjsyJqYZFNB\nkEkuxOFvTF/OfLp/uaDSG/agsQKBgQDWsLM6rNpAsppWhFeDgg+EOM2PWMJ+uucn\nqi5C0Z2i68GYCz0W89z6eqzRDRh9GEjLT75SvJTqfk1Mr4xUD4iw9ctCEHrF++Ce\nl4k6aQd75RHwqEY39JXa+YwOZ9sSzZJ6KT0BaERf54Ro1dXgBOWDdd2vhJKGnOBh\nKR7ux1X9pwKBgFxhbL1PsE7HIcIK8Up8Zo6koxq8Q2NrPyTSKadNACK3pJ81vGL7\nZnDuMiRfukwK9gmskxsRJtFdNVLRfgd7TRcfqesyWiaDBDrbddrCT8610GJDDJ2m\n4tF9gLE4GfOzUWKuLXfUepLNJzaqdopP6qFGZwVBwmyYW907qxs81FHRAoGAVGzw\nTmai/UY/Az7P21tOFsTvsStKcOO2+xYlUwlzYBot60igIWKMx8NuKldoBemC1tDp\nG0gll4FLjJiMKpJhQpWl9LjeTvUaA8O7p0ieNM6EG4tQ8bgxJgd0WEXnFKHatEd7\nQg5qtPwqSb+td4b1apjzMI6FwIH4irzM+UFSQ4kCgYA8iRz0TXLr1VZmA6PPe1Tw\nJ9Cu5O6aXdCHyeTdupZ3gmv81SIz90nokC1xfTErwIWahKrkJOqsH8Ytm5WAtciA\nRQaot0Eg4o6RAb1BMuLL0H24MR/4McOmU1990Fq+/g1Pnqg8pyTLwyA26bQgLkJV\nvGcapXUQypJp4VulJlGhGQ==\n-----END PRIVATE KEY-----\n",
  "client_email": "firebase-adminsdk-48gx1@amfitfirebase2.iam.gserviceaccount.com",
  "client_id": "115543841708869111523",
  "auth_uri": "https://accounts.google.com/o/oauth2/auth",
  "token_uri": "https://oauth2.googleapis.com/token",
  "auth_provider_x509_cert_url": "https://www.googleapis.com/oauth2/v1/certs",
  "client_x509_cert_url": "https://www.googleapis.com/robot/v1/metadata/x509/firebase-adminsdk-48gx1%40amfitfirebase2.iam.gserviceaccount.com"
}
